{
  "/api/": {
    "target": "http://127.0.0.1:8080",
    "secure": false,
    "pathRewrite": {
      "/api": "/"
    },
    "changeOrigin": true,
    "headers": {
      "Accept": "*/*",
      "Access-Control-Allow-Methods": "POST, GET, OPTIONS, DELETE, PUT",
      "Access-Control-Allow-Headers": "X-Requested-With, Content-Type, Origin, Authorization, Accept, Client-Security-Token, Accept-Encoding",
      "Access-Control-Allow-Origin": "*"
    }
  }
}
